More Modeling
…
`summarise()` has grouped output by 'date', 'seasons'. You can override using
the `.groups` argument.

bike_data

# A tibble: 353 × 12
   date       seasons holiday    bike_count    temp humidity wind_speed   vis
   <date>     <fct>   <fct>           <dbl>   <dbl>    <dbl>      <dbl> <dbl>
 1 2017-12-01 Winter  No Holiday       9539 -2.45       45.9      1.54  1871.
 2 2017-12-02 Winter  No Holiday       8523  1.32       62.0      1.71  1471.
 3 2017-12-03 Winter  No Holiday       7222  4.88       81.5      1.61   456.
 4 2017-12-04 Winter  No Holiday       8729 -0.304      52.5      3.45  1363.
 5 2017-12-05 Winter  No Holiday       8307 -4.46       36.4      1.11  1959.
 6 2017-12-06 Winter  No Holiday       6669  0.0458     70.8      0.696 1187.
 7 2017-12-07 Winter  No Holiday       8549  1.09       67.5      1.69   949.
 8 2017-12-08 Winter  No Holiday       8032 -3.82       41.8      1.85  1872.
 9 2017-12-09 Winter  No Holiday       7233 -0.846      46        1.08  1861.
10 2017-12-10 Winter  No Holiday       3453  1.19       69.7      2.00  1043.
# ℹ 343 more rows
# ℹ 4 more variables: dew_point_temp <dbl>, solar_radiation <dbl>,
#   rainfall <dbl>, snowfall <dbl>
…
Computational engine: glmnet 

Fitting the model with the tuning parameter.

lasso_grid <- lasso_wfl |>
  tune_grid(resamples = bike_10_fold,
            grid = grid_regular(penalty(), levels = 200)) 

lasso_grid[1, ".metrics"][[1]]

[[1]]
# A tibble: 400 × 5
    penalty .metric .estimator .estimate .config               
      <dbl> <chr>   <chr>          <dbl> <chr>                 
 1 1   e-10 rmse    standard       2776. Preprocessor1_Model001
 2 1.12e-10 rmse    standard       2776. Preprocessor1_Model002
 3 1.26e-10 rmse    standard       2776. Preprocessor1_Model003
 4 1.41e-10 rmse    standard       2776. Preprocessor1_Model004
 5 1.59e-10 rmse    standard       2776. Preprocessor1_Model005
 6 1.78e-10 rmse    standard       2776. Preprocessor1_Model006
 7 2.00e-10 rmse    standard       2776. Preprocessor1_Model007
 8 2.25e-10 rmse    standard       2776. Preprocessor1_Model008
 9 2.52e-10 rmse    standard       2776. Preprocessor1_Model009
10 2.83e-10 rmse    standard       2776. Preprocessor1_Model010
# ℹ 390 more rows

Examining the rmse values and plotting them to find the best selection. From discussion post, it doesn’t seem like the flat line on the plot is an issue.

lasso_grid |>
  collect_metrics() |>
  filter(.metric == "rmse")

# A tibble: 200 × 7
    penalty .metric .estimator  mean     n std_err .config               
      <dbl> <chr>   <chr>      <dbl> <int>   <dbl> <chr>                 
 1 1   e-10 rmse    standard   4245.    10    233. Preprocessor1_Model001
 2 1.12e-10 rmse    standard   4245.    10    233. Preprocessor1_Model002
 3 1.26e-10 rmse    standard   4245.    10    233. Preprocessor1_Model003
 4 1.41e-10 rmse    standard   4245.    10    233. Preprocessor1_Model004
 5 1.59e-10 rmse    standard   4245.    10    233. Preprocessor1_Model005
 6 1.78e-10 rmse    standard   4245.    10    233. Preprocessor1_Model006
 7 2.00e-10 rmse    standard   4245.    10    233. Preprocessor1_Model007
 8 2.25e-10 rmse    standard   4245.    10    233. Preprocessor1_Model008
 9 2.52e-10 rmse    standard   4245.    10    233. Preprocessor1_Model009
10 2.83e-10 rmse    standard   4245.    10    233. Preprocessor1_Model010
# ℹ 190 more rows
…
Examining tuning parameters.

reg_grid <- grid_regular(cost_complexity(),
                         tree_depth(),
                         levels = c(10, 5))

reg_fits <- reg_wfl |> 
  tune_grid(resamples = bike_10_fold,
            grid = reg_grid)

reg_fits |>
  collect_metrics()

# A tibble: 100 × 8
   cost_complexity tree_depth .metric .estimator     mean     n  std_err .config
             <dbl>      <int> <chr>   <chr>         <dbl> <int>    <dbl> <chr>  
 1    0.0000000001          1 rmse    standard   6676.       10 309.     Prepro…
 2    0.0000000001          1 rsq     standard      0.558    10   0.0463 Prepro…
 3    0.000000001           1 rmse    standard   6676.       10 309.     Prepro…
 4    0.000000001           1 rsq     standard      0.558    10   0.0463 Prepro…
 5    0.00000001            1 rmse    standard   6676.       10 309.     Prepro…
 6    0.00000001            1 rsq     standard      0.558    10   0.0463 Prepro…
 7    0.0000001             1 rmse    standard   6676.       10 309.     Prepro…
 8    0.0000001             1 rsq     standard      0.558    10   0.0463 Prepro…
 9    0.000001              1 rmse    standard   6676.       10 309.     Prepro…
10    0.000001              1 rsq     standard      0.558    10   0.0463 Prepro…
# ℹ 90 more rows

Finding the best value and selecting the models best tuning parameter values.

reg_fits |>
  collect_metrics() |>
  filter(.metric == "rmse") |>
  arrange( mean)

# A tibble: 50 × 8
   cost_complexity tree_depth .metric .estimator  mean     n std_err .config    
             <dbl>      <int> <chr>   <chr>      <dbl> <int>   <dbl> <chr>      
 1    0.0000000001         11 rmse    standard   4020.    10    184. Preprocess…
 2    0.000000001          11 rmse    standard   4020.    10    184. Preprocess…
 3    0.00000001           11 rmse    standard   4020.    10    184. Preprocess…
 4    0.0000001            11 rmse    standard   4020.    10    184. Preprocess…
 5    0.000001             11 rmse    standard   4020.    10    184. Preprocess…
 6    0.00001              11 rmse    standard   4020.    10    184. Preprocess…
 7    0.0001               11 rmse    standard   4020.    10    184. Preprocess…
 8    0.0000000001         15 rmse    standard   4020.    10    184. Preprocess…
 9    0.000000001          15 rmse    standard   4020.    10    184. Preprocess…
10    0.00000001           15 rmse    standard   4020.    10    184. Preprocess…
# ℹ 40 more rows
…
Fitting to cv folds

bag_grid <- grid_regular(cost_complexity(),
                         tree_depth(),
                         levels = c(10, 5))

bag_fits <- bag_wfl |> 
  tune_grid(resamples = bike_10_fold,
            grid = bag_grid)

bag_fits |>
  collect_metrics()

# A tibble: 100 × 8
   cost_complexity tree_depth .metric .estimator     mean     n  std_err .config
             <dbl>      <int> <chr>   <chr>         <dbl> <int>    <dbl> <chr>  
 1    0.0000000001          1 rmse    standard   6285.       10 262.     Prepro…
 2    0.0000000001          1 rsq     standard      0.615    10   0.0450 Prepro…
 3    0.000000001           1 rmse    standard   6320.       10 285.     Prepro…
 4    0.000000001           1 rsq     standard      0.611    10   0.0472 Prepro…
 5    0.00000001            1 rmse    standard   6171.       10 273.     Prepro…
 6    0.00000001            1 rsq     standard      0.632    10   0.0470 Prepro…
 7    0.0000001             1 rmse    standard   6153.       10 281.     Prepro…
 8    0.0000001             1 rsq     standard      0.629    10   0.0451 Prepro…
 9    0.000001              1 rmse    standard   6309.       10 253.     Prepro…
10    0.000001              1 rsq     standard      0.611    10   0.0437 Prepro…
# ℹ 90 more rows

Finding the smallest rmse value and selecting the models best tuning parameter values.

bag_fits |>
  collect_metrics() |>
  filter(.metric == "rmse") |>
  arrange(mean)

# A tibble: 50 × 8
   cost_complexity tree_depth .metric .estimator  mean     n std_err .config    
             <dbl>      <int> <chr>   <chr>      <dbl> <int>   <dbl> <chr>      
 1    0.00001              15 rmse    standard   3116.    10    165. Preprocess…
 2    0.00001              11 rmse    standard   3167.    10    145. Preprocess…
 3    0.0000000001          8 rmse    standard   3198.    10    200. Preprocess…
 4    0.0000000001         11 rmse    standard   3226.    10    147. Preprocess…
 5    0.001                 8 rmse    standard   3243.    10    142. Preprocess…
 6    0.00000001           15 rmse    standard   3256.    10    126. Preprocess…
 7    0.0001               11 rmse    standard   3257.    10    191. Preprocess…
 8    0.0000001            15 rmse    standard   3260.    10    173. Preprocess…
 9    0.0001               15 rmse    standard   3274.    10    158. Preprocess…
10    0.000000001           8 rmse    standard   3278.    10    173. Preprocess…
# ℹ 40 more rows
…
